covid19
…
## The following objects are masked from 'package:base':
## 
##     intersect, setdiff, setequal, union

ccw <- read_csv("confirmed_cases_worldwide.csv")

## Parsed with column specification:
## cols(
##   date = col_date(format = ""),
##   cum_cases = col_double()
## )

ccw

## # A tibble: 56 x 2
##    date       cum_cases
##    <date>         <dbl>
##  1 2020-01-22       555
##  2 2020-01-23       653
##  3 2020-01-24       941
##  4 2020-01-25      1434
##  5 2020-01-26      2118
##  6 2020-01-27      2927
##  7 2020-01-28      5578
##  8 2020-01-29      6166
##  9 2020-01-30      8234
## 10 2020-01-31      9927
## #  with 46 more rows
…
confirmed_cases_by_country <- read_csv("confirmed_cases_by_country.csv")

## Parsed with column specification:
## cols(
##   country = col_character(),
##   province = col_character(),
##   date = col_date(format = ""),
##   cases = col_double(),
##   cum_cases = col_double()
## )

confirmed_cases_by_country

## # A tibble: 13,272 x 5
##    country             province date       cases cum_cases
##    <chr>               <chr>    <date>     <dbl>     <dbl>
##  1 Afghanistan         <NA>     2020-01-22     0         0
##  2 Albania             <NA>     2020-01-22     0         0
##  3 Algeria             <NA>     2020-01-22     0         0
##  4 Andorra             <NA>     2020-01-22     0         0
##  5 Antigua and Barbuda <NA>     2020-01-22     0         0
##  6 Argentina           <NA>     2020-01-22     0         0
##  7 Armenia             <NA>     2020-01-22     0         0
##  8 Aruba               <NA>     2020-01-22     0         0
##  9 Austria             <NA>     2020-01-22     0         0
## 10 Azerbaijan          <NA>     2020-01-22     0         0
## #  with 13,262 more rows
…
